{
  "version": "1.0.0-*",
  "description": "FitnessTracker.Infrastructure Class Library",
  "authors": [ "Class Library template" ],
  "tags": [""],
  "projectUrl": "",
  "licenseUrl": "",
  "tooling": {
    "defaultNamespace": "FitnessTracker.Infrastructure"
  },

  "frameworks": {
    "dnxcore50": {
      "dependencies": {
        "Microsoft.CSharp": "4.0.1-beta-23516",
        "System.Collections": "4.0.11-beta-23516",
        "System.Linq": "4.0.1-beta-23516",
        "System.Runtime": "4.0.21-beta-23516",
        "System.Threading": "4.0.11-beta-23516"
      }
    }
  }
}
